{
    "DigitizerB21": {
	"name": "digitizer01",
	"host": "localhost",
	"port": 5510,
	"type": "DigitizerReceiver",
        "loglevel":         { "$ref": "top.json#loglevel" },
	"metrics_settings": { "$ref": "top.json#metrics_settings" },
	"settings": {
            "host_pc": "192.168.122.2",
            "board_type": "v0",
            "digitizer_hw_address": "0x04320000",
	    "buffer": {"custom": true, "length": 630, "n_post_samples": 120},
	    "trigger_acquisition": {"external": false, "software": true, "internal": true},
	    "trigger_software": {"enable": false, "rate": 3},
            "trigger_internal": [{"group" : 0, "enable": 0, "logic": "OR", "threshold_ch0": 10000,   "threshold_ch1": 10000,  "output_width":32},
				 {"group" : 1, "enable": 1, "logic": "OR", "threshold_ch0": 10000,   "threshold_ch1": 10000,  "output_width":32},
				 {"group" : 2, "enable": 0, "logic": "OR", "threshold_ch0": 10000,   "threshold_ch1": 10000,  "output_width":32},
				 {"group" : 3, "enable": 1, "logic": "OR", "threshold_ch0": 10000,   "threshold_ch1": 10000,  "output_width":32},
				 {"group" : 4, "enable": 0, "logic": "OR", "threshold_ch0": 10000,   "threshold_ch1": 10000,  "output_width":32},
				 {"group" : 5, "enable": 0, "logic": "OR", "threshold_ch0": 10000,   "threshold_ch1": 10000,  "output_width":32},
				 {"group" : 6, "enable": 0, "logic": "OR", "threshold_ch0": 10000,   "threshold_ch1": 10000,  "output_width":32},
				 {"group" : 7, "enable": 0, "logic": "OR", "threshold_ch0": 10000,   "threshold_ch1": 10000,  "output_width":32}],
            "trigger_internal_polarity": "over",
            "channel_readout": [{"channel": 0,  "enable": 1, "dynamic_range": 2.0,  "dc_offset": 0.0},
				{"channel": 1,  "enable": 1, "dynamic_range": 2.0,  "dc_offset": 0.0},
				{"channel": 2,  "enable": 1, "dynamic_range": 2.0,  "dc_offset": 0.0},
				{"channel": 3,  "enable": 1, "dynamic_range": 2.0,  "dc_offset": 0.0},
				{"channel": 4,  "enable": 1, "dynamic_range": 2.0,  "dc_offset": 0.0},
				{"channel": 5,  "enable": 1, "dynamic_range": 2.0,  "dc_offset": 0.0},
				{"channel": 6,  "enable": 1, "dynamic_range": 2.0,  "dc_offset": 0.0},
				{"channel": 7,  "enable": 1, "dynamic_range": 2.0,  "dc_offset": 0.0},
				{"channel": 8,  "enable": 1, "dynamic_range": 2.0,  "dc_offset": 0.0},
				{"channel": 9,  "enable": 1, "dynamic_range": 2.0,  "dc_offset": 0.0},
				{"channel": 10, "enable": 1, "dynamic_range": 2.0,  "dc_offset": 0.0},
				{"channel": 11, "enable": 1, "dynamic_range": 2.0,  "dc_offset": 0.0},
				{"channel": 12, "enable": 1, "dynamic_range": 2.0,  "dc_offset": 0.0},
				{"channel": 13, "enable": 1, "dynamic_range": 2.0,  "dc_offset": 0.0},
				{"channel": 14, "enable": 1, "dynamic_range": 2.0,  "dc_offset": 0.0},
				{"channel": 15, "enable": 1, "dynamic_range": 2.0,  "dc_offset": 0.0}],
            "readout": {"readout_blt": 2000,
			"readout_method": "2ESST320FIFO",
			"interface_jumbo": true,
			"interface_max_packets": 2,
			"interface_packet_gap": 0,
			"software_buffer": 2000000,
			"print_event": false,
			"n_busy_level": 500},
            "parsing": {"ttt_converter": 40.08,
			"bcid_ttt_fix": -25}
	},
	"connections": {
            "senders": [
		{
		    "type": "pair",
		    "chid": 0,
		    "transport": "tcp",
		    "host": "*",
		    "port": 8101
		}
            ]
	}
    },
   "DigitizerEHN1": {
	"name": "digitizer01",
	"host": "localhost",
	"port": 5510,
	"type": "DigitizerReceiver",
        "loglevel":         { "$ref": "top.json#loglevel" },
	"metrics_settings": { "$ref": "top.json#metrics_settings" },
	"settings": {
            "host_pc": "faser-vme-controller-00",
            "board_type": "v0",
            "digitizer_hw_address": "0x32000000",
	    "buffer": {"custom": true, "length": 630, "n_post_samples": 0},
	    "trigger_acquisition": {"external": true, "software": false, "internal": false},
	    "trigger_software": {"enable": false, "rate": 0},
            "trigger_internal": [{"group" : 0, "enable": 0, "logic": "OnlyA", "threshold_ch0": 8000,   "threshold_ch1": 7800,  "output_width":32},
				 {"group" : 1, "enable": 0, "logic": "OnlyA", "threshold_ch0": 8000,   "threshold_ch1": 7800,  "output_width":32},
				 {"group" : 2, "enable": 0, "logic": "AND", "threshold_ch0": 7800,   "threshold_ch1": 7800,  "output_width":32},
				 {"group" : 3, "enable": 0, "logic": "AND", "threshold_ch0": 7800,   "threshold_ch1": 7800,  "output_width":32},
				 {"group" : 4, "enable": 0, "logic": "AND", "threshold_ch0": 8000,   "threshold_ch1": 8000,  "output_width":32},
				 {"group" : 5, "enable": 0, "logic": "AND", "threshold_ch0": 8000,   "threshold_ch1": 8000,  "output_width":32},
				 {"group" : 6, "enable": 0, "logic": "AND", "threshold_ch0": 7800,   "threshold_ch1": 7800,  "output_width":32},
				 {"group" : 7, "enable": 0, "logic": "AND", "threshold_ch0": 7800,   "threshold_ch1": 7800,  "output_width":32}],
            "trigger_internal_polarity": "over",
            "channel_readout": [{"channel": 0,  "enable": 1, "dynamic_range": 2.0,  "dc_offset": 0.0},
				{"channel": 1,  "enable": 1, "dynamic_range": 2.0,  "dc_offset": 0.0},
				{"channel": 2,  "enable": 1, "dynamic_range": 2.0,  "dc_offset": 0.0},
				{"channel": 3,  "enable": 1, "dynamic_range": 2.0,  "dc_offset": 0.0},
				{"channel": 4,  "enable": 0, "dynamic_range": 2.0,  "dc_offset": 0.0},
				{"channel": 5,  "enable": 0, "dynamic_range": 2.0,  "dc_offset": 0.0},
				{"channel": 6,  "enable": 0, "dynamic_range": 2.0,  "dc_offset": 0.0},
				{"channel": 7,  "enable": 0, "dynamic_range": 2.0,  "dc_offset": 0.0},
				{"channel": 8,  "enable": 0, "dynamic_range": 2.0,  "dc_offset": 0.0},
				{"channel": 9,  "enable": 0, "dynamic_range": 2.0,  "dc_offset": 0.0},
				{"channel": 10, "enable": 0, "dynamic_range": 2.0,  "dc_offset": 0.0},
				{"channel": 11, "enable": 0, "dynamic_range": 2.0,  "dc_offset": 0.0},
				{"channel": 12, "enable": 0, "dynamic_range": 2.0,  "dc_offset": 0.0},
				{"channel": 13, "enable": 0, "dynamic_range": 2.0,  "dc_offset": 0.0},
				{"channel": 14, "enable": 0, "dynamic_range": 2.0,  "dc_offset": 0.0},
				{"channel": 15, "enable": 0, "dynamic_range": 2.0,  "dc_offset": 0.0}],
            "readout": {"readout_blt": 2000,
			"readout_method": "2ESST320FIFO",
			"interface_jumbo": false,
			"interface_max_packets": 1,
			"interface_packet_gap": 0,
			"software_buffer": 2000000,
			"print_event": false,
			"n_busy_level": 500},
            "parsing": {"ttt_converter": 40.08,
			"bcid_ttt_fix": -25}
	},
	"connections": {
            "senders": [
		{
		    "type": "pair",
		    "chid": 0,
		    "transport": "tcp",
		    "host": "*",
		    "port": 8101
		}
            ]
	}
    },
   "DigitizerLED": {
	"name": "digitizer01",
	"host": "localhost",
	"port": 5510,
	"type": "DigitizerReceiver",
        "loglevel":         { "$ref": "top.json#loglevel" },
	"metrics_settings": { "$ref": "top.json#metrics_settings" },
	"settings": {
            "host_pc": "faser-vme-controller-00",
            "board_type": "v0",
            "digitizer_hw_address": "0x32000000",
	    "buffer": {"custom": true, "length": 630, "n_post_samples": 0},
	    "trigger_acquisition": {"external": true, "software": false, "internal": false},
	    "trigger_software": {"enable": false, "rate": 0},
            "trigger_internal": [{"group" : 0, "enable": 0, "logic": "OnlyA", "threshold_ch0": 8000,   "threshold_ch1": 7800,  "output_width":32},
				 {"group" : 1, "enable": 0, "logic": "OnlyA", "threshold_ch0": 8000,   "threshold_ch1": 7800,  "output_width":32},
				 {"group" : 2, "enable": 0, "logic": "AND", "threshold_ch0": 7800,   "threshold_ch1": 7800,  "output_width":32},
				 {"group" : 3, "enable": 0, "logic": "AND", "threshold_ch0": 7800,   "threshold_ch1": 7800,  "output_width":32},
				 {"group" : 4, "enable": 0, "logic": "AND", "threshold_ch0": 8000,   "threshold_ch1": 8000,  "output_width":32},
				 {"group" : 5, "enable": 0, "logic": "AND", "threshold_ch0": 8000,   "threshold_ch1": 8000,  "output_width":32},
				 {"group" : 6, "enable": 0, "logic": "AND", "threshold_ch0": 7800,   "threshold_ch1": 7800,  "output_width":32},
				 {"group" : 7, "enable": 0, "logic": "AND", "threshold_ch0": 7800,   "threshold_ch1": 7800,  "output_width":32}],
            "trigger_internal_polarity": "over",
            "channel_readout": [{"channel": 0,  "enable": 1, "dynamic_range": 2.0,  "dc_offset": 0.0},
				{"channel": 1,  "enable": 1, "dynamic_range": 2.0,  "dc_offset": 0.0},
				{"channel": 2,  "enable": 1, "dynamic_range": 2.0,  "dc_offset": 0.0},
				{"channel": 3,  "enable": 1, "dynamic_range": 2.0,  "dc_offset": 0.0},
				{"channel": 4,  "enable": 0, "dynamic_range": 2.0,  "dc_offset": 0.0},
				{"channel": 5,  "enable": 0, "dynamic_range": 2.0,  "dc_offset": 0.0},
				{"channel": 6,  "enable": 0, "dynamic_range": 2.0,  "dc_offset": 0.0},
				{"channel": 7,  "enable": 0, "dynamic_range": 2.0,  "dc_offset": 0.0},
				{"channel": 8,  "enable": 0, "dynamic_range": 2.0,  "dc_offset": 0.0},
				{"channel": 9,  "enable": 0, "dynamic_range": 2.0,  "dc_offset": 0.0},
				{"channel": 10, "enable": 0, "dynamic_range": 2.0,  "dc_offset": 0.0},
				{"channel": 11, "enable": 0, "dynamic_range": 2.0,  "dc_offset": 0.0},
				{"channel": 12, "enable": 0, "dynamic_range": 2.0,  "dc_offset": 0.0},
				{"channel": 13, "enable": 0, "dynamic_range": 2.0,  "dc_offset": 0.0},
				{"channel": 14, "enable": 0, "dynamic_range": 2.0,  "dc_offset": 0.0},
				{"channel": 15, "enable": 0, "dynamic_range": 2.0,  "dc_offset": 0.0}],
            "readout": {"readout_blt": 2000,
			"readout_method": "2ESST320FIFO",
			"interface_jumbo": false,
			"interface_max_packets": 1,
			"interface_packet_gap": 0,
			"software_buffer": 2000000,
			"print_event": false,
			"n_busy_level": 500},
            "parsing": {"ttt_converter": 40.08,
			"bcid_ttt_fix": -25}
	},
	"connections": {
            "senders": [
		{
		    "type": "pair",
		    "chid": 0,
		    "transport": "tcp",
		    "host": "*",
		    "port": 8101
		}
            ]
	}
    },
    "DigitizerMonitor": {
	"name": "digitizermonitor01",
	"host": "localhost",
	"port": 5511,
	"type": "DigitizerMonitor",
        "loglevel":         { "$ref": "top.json#loglevel" },
	"metrics_settings": { "$ref": "top.json#metrics_settings" },
	"settings": {
            "fragmentID": 262144,
            "buffer_length": 600,
            "publish_interval": 20
	},
	"connections": {
            "receivers": [
		{
		    "type": "pubsub",
		    "chid": 0,
		    "transport": "tcp",
		    "host": "localhost",
		    "port": 8200
		}
            ]
	}
    }
}
