{
  "EventBuilder": {
      "settings": {
          "maxPending": 10,
          "timeout_ms": 120000,
          "stopTimeout_ms": 1000
        },
      "connections": {
	  "senders": [
            {
              "type": "pubsub",
              "chid": 0,
              "transport": "tcp",
              "host": "*",
              "port": 8200
            },
            {
              "type": "pubsub",
              "chid": 1,
              "transport": "tcp",
              "host": "*",
              "port": 8201
            },
            {
              "type": "pubsub",
              "chid": 2,
              "transport": "tcp",
              "host": "*",
              "port": 8202
            },
            {
              "type": "pubsub",
              "chid": 3,
              "transport": "tcp",
              "host": "*",
              "port": 8203
            },
            {
              "type": "pubsub",
              "chid": 16,
              "transport": "tcp",
              "host": "*",
              "port": 8216
            },
            {
              "type": "pubsub",
              "chid": 17,
              "transport": "tcp",
              "host": "*",
              "port": 8217
            },
            {
              "type": "pubsub",
              "chid": 18,
              "transport": "tcp",
              "host": "*",
              "port": 8218
            }
          ]
	  }
  }
}
